<?xml version="1.0" encoding="UTF-8"?>
<svg id="svg4" role="img" version="1.1" viewBox="0 0 24 24" xmlns="http://www.w3.org/2000/svg">
 <path id="path2" d="M12 0L1.608 6v12L12 24l10.392-6V6zm-1.073 1.445h.001a1.8 1.8 0 0 0 2.138 0l7.534 4.35a1.794 1.794 0 0 0 0 .403l-7.535 4.35a1.8 1.8 0 0 0-2.137 0l-7.536-4.35a1.795 1.795 0 0 0 0-.402zM21.324 7.4c.109.08.226.147.349.201v8.7a1.8 1.8 0 0 0-1.069 1.852l-7.535 4.35a1.8 1.8 0 0 0-.349-.2l-.009-8.653a1.8 1.8 0 0 0 1.07-1.851zm-18.648.048l7.535 4.35a1.8 1.8 0 0 0 1.069 1.852v8.7c-.124.054-.24.122-.349.202l-7.535-4.35a1.8 1.8 0 0 0-1.069-1.852v-8.7a1.85 1.85 0 0 0 .35-.202z"/>
</svg>
